{
  "kind": "collectionType",
  "collectionName": "jobs",
  "info": {
    "singularName": "job",
    "pluralName": "jobs",
    "displayName": "Job",
    "description": ""
  },
  "options": {
    "draftAndPublish": true
  },
  "pluginOptions": {},
  "attributes": {
    "reference": {
      "type": "uid"
    },
    "title": {
      "type": "string"
    },
    "tasks": {
      "type": "json"
    },
    "profile": {
      "type": "json"
    },
    "benefits": {
      "type": "json"
    },
    "dateStart": {
      "type": "datetime"
    },
    "dateEnd": {
      "type": "datetime"
    }
  }
}
