{
    "intro": "Wir suchen zum nächstmöglichen Zeitpunkt in Frankfurt am Main und in Vollzeit einen:",
    "about": "Über uns",
    "description": "Die GHG leistet als Fachbetrieb der Heizungs- und Sanitärtechnik sämtliche Arbeiten rund um die Wärmeerzeugung - von Heizungs-, Warmwasser- und Solaranlagen einschließlich der entsprechenden Sanitär- und Elektroinstallationen. Von der Beratung und Planung, dem Einbau innovativer Heiztechniken bis zur Wartung und Modernisierung Ihrer Heizungsanlage.",
    "benefits": {
        "label": "Wir bieten Dir:",
        "items": [
            {
                "label": "Leistungsgerechtes Gehalt",
                "desc": "4,5 Tage-Woche (am Freitag ist schon gegen 12 Uhr Feierabend!)",
                "logo": "img:icons/weoffer-working-week.png"
            },
            {
                "label": "30 Tage Urlaub",
                "desc": "30 Tage Urlaub",
                "logo": "img:icons/weoffer-30-days-holiday.png"
            },
            {
                "label": "Gute Arbeitsatmosphäre",
                "desc": "Urlaubs- und Weihnachtsgeld",
                "logo": "img:icons/weoffer-holiday-pay.png"
            },
            {
                "label": "Betriebliche Altersvorsorge",
                "desc": "Betriebliche Altersvorsorge",
                "logo": "img:icons/weoffer-pension-provision.png"
            },
            {
                "label": "Pünktliche Lohnzahlungen",
                "desc": "Pünktliche Lohnzahlungen",
                "logo": "img:icons/weoffer-continued-payment-of-wages.png"
            },
            {
                "label": "Sport",
                "desc": "Vergünstigungen bei Sport und anderen Aktivitäten",
                "logo": "img:icons/weoffer-sport.png"
            },
            {
                "label": "Persönliche Entwicklung und regelmäßige Schulungen",
                "desc": "Persönliche Entwicklung und regelmäßige Schulungen",
                "logo": "img:icons/weoffer-development.png"
            },
            {
                "label": "Tolles Arbeitsklima.",
                "desc": "Tolles Arbeitsklima, ein gutes Team mit starken Zusammenhalt. Ein guter Umgangston ist uns wichtig.",
                "logo": "img:icons/weoffer-working-climate.png"
            },
            {
                "label": "Professionellen Arbeitsplatz",
                "desc": "Einen sicheren, gut ausgestatteten und professionellen Arbeitsplatz",
                "logo": "img:icons/weoffer-security.png"
            },
            {
                "label": "Digitale Auftragsabwicklung",
                "desc": "Digitale Auftragsabwicklung ohne Handzettel",
                "logo": "img:icons/weoffer-digital.png"
            },
            {
                "label": "Reibungslose Arbeitsabläufe",
                "desc": "Reibungslose Arbeitsabläufe",
                "logo": "img:icons/weoffer-smooth-workflows.png"
            },
            {
                "label": "Firmenaktivitäten",
                "desc": "Firmenaktivitäten (z.B. Sommer- und Weihnachtsfeiern)",
                "logo": "img:icons/weoffer-celebrations.png"
            },
            {
                "label": "Keine langen Fahrten",
                "desc": "Einsatzbereich nur in Frankfurt a/M und nahe Umgebung",
                "logo": "img:icons/weoffer-operational-area.png"
            },
            {
                "label": "Keine Materialbestellungen",
                "desc": "Materialbestellungen erledigen wir für Dich. Das Material wird vor Deinem Einsatz für Dich bereit gelegt. ",
                "logo": "img:icons/weoffer-material.png"
            }
        ]
    },
    "profile": {
        "label": "Dein Profil:"
    },
    "tasks": {
        "label": "Deine Tätigkeiten bei uns:"
    }
}
